{"flickr_brown bear": {"photos": {"page": 1, "pages": 2211, "perpage": 5, "total": "11055", "photo": [{"id": "51115130943", "owner": "127410939@N04", "secret": "df6ca62221", "server": "65535", "farm": 66, "title": "Buffalo Fork on the Snake River, Wyoming", "ispublic": 1, "isfriend": 0, "isfamily": 0, "latitude": "44.133348", "longitude": "-110.665243", "accuracy": "16", "context": 0, "place_id": "", "woeid": "5840786", "geo_is_public": 1, "geo_is_contact": 0, "geo_is_friend": 0, "geo_is_family": 0, "url_z": "https://live.staticflickr.com/65535/51115130943_df6ca62221_z.jpg", "height_z": 427, "width_z": 640}, {"id": "51036292837", "owner": "29650271@N08", "secret": "7d87cc3546", "server": "65535", "farm": 66, "title": "somewhere in Yellowstone National Park", "ispublic": 1, "isfriend": 0, "isfamily": 0, "latitude": "44.722501", "longitude": "-110.501303", "accuracy": "15", "context": 0, "place_id": "", "woeid": "5820541", "geo_is_public": 1, "geo_is_contact": 0, "geo_is_friend": 0, "geo_is_family": 0, "url_z": "https://live.staticflickr.com/65535/51036292837_7d87cc3546_z.jpg", "height_z": 427, "width_z": 640}, {"id": "51034356293", "owner": "116427736@N08", "secret": "7e1d7ed9cc", "server": "65535", "farm": 66, "title": "Orange Mound Spring", "ispublic": 1, "isfriend": 0, "isfamily": 0, "latitude": "44.964008", "longitude": "-110.713659", "accuracy": "16", "context": 0, "place_id": "", "woeid": "5831487", "geo_is_public": 1, "geo_is_contact": 0, "geo_is_friend": 0, "geo_is_family": 0, "url_z": "https://live.staticflickr.com/65535/51034356293_7e1d7ed9cc_z.jpg", "height_z": 360, "width_z": 640}, {"id": "51029820463", "owner": "46837385@N03", "secret": "375241a7d4", "server": "65535", "farm": 66, "title": "Baby Elk Yellowstone", "ispublic": 1, "isfriend": 0, "isfamily": 0, "latitude": "44.976952", "longitude": "-110.698578", "accuracy": "16", "context": 0, "place_id": "", "woeid": "5831487", "geo_is_public": 1, "geo_is_contact": 0, "geo_is_friend": 0, "geo_is_family": 0, "url_z": "https://live.staticflickr.com/65535/51029820463_375241a7d4_z.jpg", "height_z": 427, "width_z": 640}, {"id": "51029820448", "owner": "46837385@N03", "secret": "d3bbf821eb", "server": "65535", "farm": 66, "title": "Baby Elk Yellowstone (2)", "ispublic": 1, "isfriend": 0, "isfamily": 0, "latitude": "44.976955", "longitude": "-110.698573", "accuracy": "16", "context": 0, "place_id": "", "woeid": "5831487", "geo_is_public": 1, "geo_is_contact": 0, "geo_is_friend": 0, "geo_is_family": 0, "url_z": "https://live.staticflickr.com/65535/51029820448_d3bbf821eb_z.jpg", "height_z": 427, "width_z": 640}]}, "stat": "ok"}}